%YAML 1.1
%TAG !u! tag:unity3d.com,2011:
--- !u!1045 &1
EditorBuildSettings:
  m_ObjectHideFlags: 0
  serializedVersion: 2
  m_Scenes:
  - enabled: 1
    path: Assets/Scenes/Main Menu.unity
    guid: 5a67d27604931d3488e8cf32982d1801
  - enabled: 1
    path: Assets/Scenes/Tutorial 0.unity
    guid: eb13469a54fc3834b86c9381f4790f2a
  - enabled: 1
    path: Assets/Scenes/Tutorial 1.unity
    guid: aa086a5038175a949b5ada7076a8ea0e
  - enabled: 1
    path: Assets/Scenes/Tutorial 2.unity
    guid: 50afcc1974cf6f84bbe4bbf7e360939d
  - enabled: 1
    path: Assets/Scenes/Tutorial 3.unity
    guid: 17b129761db1fe84f871605ead6950db
  - enabled: 1
    path: Assets/Scenes/Controles.unity
    guid: 0a15dca950345954487bf098bfece729
  - enabled: 1
    path: Assets/Scenes/Game Scene.unity
    guid: 2cda990e2423bbf4892e6590ba056729
  - enabled: 1
    path: Assets/Scenes/Background.unity
    guid: 72917531062c74047b532b6ecfd28ecb
  - enabled: 1
    path: Assets/Scenes/Enemigos.unity
    guid: 7fc3d0bf411a3f74b9fdac998d5672ab
  - enabled: 1
    path: Assets/Scenes/Gameplay UI.unity
    guid: 0db9666613e435741bbbe963a29da310
  - enabled: 1
    path: Assets/Scenes/Defeat.unity
    guid: 03c75bb3afa9c584cbf3ef9ac423a0f0
  - enabled: 1
    path: Assets/Scenes/Creditos.unity
    guid: 7ecc21707d298bf468ab207894f43e9f
  m_configObjects: {}
